COD/verilog/use_WB_fw.log
VCD info: dumpfile vcd/log_3_mfEXMEM.vcd opened for output.
sd rs2:11110
INSTR_SIZE:         256 should be         256
ld instr offset: 000000000000,init_instr_offset_union:00000000000000001011000010000011000000000000 should include instr :00000000000000001011000010000011
0th IMemory :1011000010000011,offset:000000000000
in sd func, rs2:11110, last element:1,rs1:1,sd:1111000001011000000100011
sd instr offset: 000000000000
sd instr rs2:11110
1th IMemory :1111000001011000000100011,offset:000000000000
offset increase to 000000000100
2th IMemory :10011,offset:000000000100
ld instr offset: 000000000100,init_instr_offset_union:00000000010000001011000010000011000000000100 should include instr :00000000010000001011000010000011
sd instr rs2:100
3th IMemory :10000001011000010000011,offset:000000000100
in sd func, rs2:11110, last element:1,rs1:1,sd:1111000001011001000100011
sd instr offset: 000000000100
4th IMemory :1111000001011001000100011,offset:000000000100
offset increase to 000000001000
sd instr rs2:0
5th IMemory :10011,offset:000000001000
ld instr offset: 000000001000,init_instr_offset_union:00000000100000001011000010000011000000001000 should include instr :00000000100000001011000010000011
6th IMemory :100000001011000010000011,offset:000000001000
in sd func, rs2:11110, last element:1,rs1:1,sd:1111000001011010000100011
sd instr offset: 000000001000
sd instr rs2:11110
7th IMemory :1111000001011010000100011,offset:000000001000
offset increase to 000000001100
8th IMemory :10011,offset:000000001100
ld instr offset: 000000001100,init_instr_offset_union:00000000110000001011000010000011000000001100 should include instr :00000000110000001011000010000011
sd instr rs2:1100
9th IMemory :110000001011000010000011,offset:000000001100
in sd func, rs2:11110, last element:1,rs1:1,sd:1111000001011011000100011
sd instr offset: 000000001100
10th IMemory :1111000001011011000100011,offset:000000001100
offset increase to 000000010000
sd instr rs2:0
11th IMemory :10011,offset:000000010000
ld instr offset: 000000010000,init_instr_offset_union:00000001000000001011000010000011000000010000 should include instr :00000001000000001011000010000011
12th IMemory :1000000001011000010000011,offset:000000010000
in sd func, rs2:11110, last element:1,rs1:1,sd:1111000001011100000100011
sd instr offset: 000000010000
sd instr rs2:11110
13th IMemory :1111000001011100000100011,offset:000000010000
offset increase to 000000010100
14th IMemory :10011,offset:000000010100
ld instr offset: 000000010100,init_instr_offset_union:00000001010000001011000010000011000000010100 should include instr :00000001010000001011000010000011
sd instr rs2:10100
15th IMemory :1010000001011000010000011,offset:000000010100
in sd func, rs2:11110, last element:1,rs1:1,sd:1111000001011101000100011
sd instr offset: 000000010100
16th IMemory :1111000001011101000100011,offset:000000010100
offset increase to 000000011000
sd instr rs2:0
17th IMemory :10011,offset:000000011000
ld instr offset: 000000011000,init_instr_offset_union:00000001100000001011000010000011000000011000 should include instr :00000001100000001011000010000011
18th IMemory :1100000001011000010000011,offset:000000011000
in sd func, rs2:11110, last element:1,rs1:1,sd:1111000001011110000100011
sd instr offset: 000000011000
sd instr rs2:11110
19th IMemory :1111000001011110000100011,offset:000000011000
offset increase to 000000011100
20th IMemory :10011,offset:000000011100
ld instr offset: 000000011100,init_instr_offset_union:00000001110000001011000010000011000000011100 should include instr :00000001110000001011000010000011
sd instr rs2:11100
21th IMemory :1110000001011000010000011,offset:000000011100
in sd func, rs2:11110, last element:1,rs1:1,sd:1111000001011111000100011
sd instr offset: 000000011100
22th IMemory :1111000001011111000100011,offset:000000011100
offset increase to 000000100000
sd instr rs2:0
23th IMemory :10011,offset:000000100000
ld instr offset: 000000100000,init_instr_offset_union:00000010000000001011000010000011000000100000 should include instr :00000010000000001011000010000011
24th IMemory :10000000001011000010000011,offset:000000100000
in sd func, rs2:11110, last element:1,rs1:1,sd:11111000001011000000100011
sd instr offset: 000000100000
sd instr rs2:11110
25th IMemory :11111000001011000000100011,offset:000000100000
offset increase to 000000100100
26th IMemory :10011,offset:000000100100
ld instr offset: 000000100100,init_instr_offset_union:00000010010000001011000010000011000000100100 should include instr :00000010010000001011000010000011
sd instr rs2:100
27th IMemory :10010000001011000010000011,offset:000000100100
in sd func, rs2:11110, last element:1,rs1:1,sd:11111000001011001000100011
sd instr offset: 000000100100
28th IMemory :11111000001011001000100011,offset:000000100100
offset increase to 000000101000
sd instr rs2:0
29th IMemory :10011,offset:000000101000
ld instr offset: 000000101000,init_instr_offset_union:00000010100000001011000010000011000000101000 should include instr :00000010100000001011000010000011
30th IMemory :10100000001011000010000011,offset:000000101000
in sd func, rs2:11110, last element:1,rs1:1,sd:11111000001011010000100011
sd instr offset: 000000101000
sd instr rs2:11110
31th IMemory :11111000001011010000100011,offset:000000101000
offset increase to 000000101100
32th IMemory :10011,offset:000000101100
ld instr offset: 000000101100,init_instr_offset_union:00000010110000001011000010000011000000101100 should include instr :00000010110000001011000010000011
sd instr rs2:1100
33th IMemory :10110000001011000010000011,offset:000000101100
in sd func, rs2:11110, last element:1,rs1:1,sd:11111000001011011000100011
sd instr offset: 000000101100
34th IMemory :11111000001011011000100011,offset:000000101100
offset increase to 000000110000
sd instr rs2:0
35th IMemory :10011,offset:000000110000
ld instr offset: 000000110000,init_instr_offset_union:00000011000000001011000010000011000000110000 should include instr :00000011000000001011000010000011
36th IMemory :11000000001011000010000011,offset:000000110000
in sd func, rs2:11110, last element:1,rs1:1,sd:11111000001011100000100011
sd instr offset: 000000110000
sd instr rs2:11110
37th IMemory :11111000001011100000100011,offset:000000110000
offset increase to 000000110100
38th IMemory :10011,offset:000000110100
ld instr offset: 000000110100,init_instr_offset_union:00000011010000001011000010000011000000110100 should include instr :00000011010000001011000010000011
sd instr rs2:10100
39th IMemory :11010000001011000010000011,offset:000000110100
in sd func, rs2:11110, last element:1,rs1:1,sd:11111000001011101000100011
sd instr offset: 000000110100
40th IMemory :11111000001011101000100011,offset:000000110100
offset increase to 000000111000
sd instr rs2:0
41th IMemory :10011,offset:000000111000
ld instr offset: 000000111000,init_instr_offset_union:00000011100000001011000010000011000000111000 should include instr :00000011100000001011000010000011
42th IMemory :11100000001011000010000011,offset:000000111000
in sd func, rs2:11110, last element:1,rs1:1,sd:11111000001011110000100011
sd instr offset: 000000111000
sd instr rs2:11110
43th IMemory :11111000001011110000100011,offset:000000111000
offset increase to 000000111100
44th IMemory :10011,offset:000000111100
ld instr offset: 000000111100,init_instr_offset_union:00000011110000001011000010000011000000111100 should include instr :00000011110000001011000010000011
sd instr rs2:11100
45th IMemory :11110000001011000010000011,offset:000000111100
in sd func, rs2:11110, last element:1,rs1:1,sd:11111000001011111000100011
sd instr offset: 000000111100
46th IMemory :11111000001011111000100011,offset:000000111100
offset increase to 000001000000
sd instr rs2:0
47th IMemory :10011,offset:000001000000
ld instr offset: 000001000000,init_instr_offset_union:00000100000000001011000010000011000001000000 should include instr :00000100000000001011000010000011
48th IMemory :100000000001011000010000011,offset:000001000000
in sd func, rs2:11110, last element:1,rs1:1,sd:101111000001011000000100011
sd instr offset: 000001000000
sd instr rs2:11110
49th IMemory :101111000001011000000100011,offset:000001000000
offset increase to 000001000100
50th IMemory :10011,offset:000001000100
ld instr offset: 000001000100,init_instr_offset_union:00000100010000001011000010000011000001000100 should include instr :00000100010000001011000010000011
sd instr rs2:100
51th IMemory :100010000001011000010000011,offset:000001000100
in sd func, rs2:11110, last element:1,rs1:1,sd:101111000001011001000100011
sd instr offset: 000001000100
52th IMemory :101111000001011001000100011,offset:000001000100
offset increase to 000001001000
sd instr rs2:0
53th IMemory :10011,offset:000001001000
ld instr offset: 000001001000,init_instr_offset_union:00000100100000001011000010000011000001001000 should include instr :00000100100000001011000010000011
54th IMemory :100100000001011000010000011,offset:000001001000
in sd func, rs2:11110, last element:1,rs1:1,sd:101111000001011010000100011
sd instr offset: 000001001000
sd instr rs2:11110
55th IMemory :101111000001011010000100011,offset:000001001000
offset increase to 000001001100
56th IMemory :10011,offset:000001001100
ld instr offset: 000001001100,init_instr_offset_union:00000100110000001011000010000011000001001100 should include instr :00000100110000001011000010000011
sd instr rs2:1100
57th IMemory :100110000001011000010000011,offset:000001001100
in sd func, rs2:11110, last element:1,rs1:1,sd:101111000001011011000100011
sd instr offset: 000001001100
58th IMemory :101111000001011011000100011,offset:000001001100
offset increase to 000001010000
sd instr rs2:0
59th IMemory :10011,offset:000001010000
ld instr offset: 000001010000,init_instr_offset_union:00000101000000001011000010000011000001010000 should include instr :00000101000000001011000010000011
60th IMemory :101000000001011000010000011,offset:000001010000
in sd func, rs2:11110, last element:1,rs1:1,sd:101111000001011100000100011
sd instr offset: 000001010000
sd instr rs2:11110
61th IMemory :101111000001011100000100011,offset:000001010000
offset increase to 000001010100
62th IMemory :10011,offset:000001010100
ld instr offset: 000001010100,init_instr_offset_union:00000101010000001011000010000011000001010100 should include instr :00000101010000001011000010000011
sd instr rs2:10100
63th IMemory :101010000001011000010000011,offset:000001010100
in sd func, rs2:11110, last element:1,rs1:1,sd:101111000001011101000100011
sd instr offset: 000001010100
64th IMemory :101111000001011101000100011,offset:000001010100
offset increase to 000001011000
sd instr rs2:0
65th IMemory :10011,offset:000001011000
ld instr offset: 000001011000,init_instr_offset_union:00000101100000001011000010000011000001011000 should include instr :00000101100000001011000010000011
66th IMemory :101100000001011000010000011,offset:000001011000
in sd func, rs2:11110, last element:1,rs1:1,sd:101111000001011110000100011
sd instr offset: 000001011000
sd instr rs2:11110
67th IMemory :101111000001011110000100011,offset:000001011000
offset increase to 000001011100
68th IMemory :10011,offset:000001011100
ld instr offset: 000001011100,init_instr_offset_union:00000101110000001011000010000011000001011100 should include instr :00000101110000001011000010000011
sd instr rs2:11100
69th IMemory :101110000001011000010000011,offset:000001011100
in sd func, rs2:11110, last element:1,rs1:1,sd:101111000001011111000100011
sd instr offset: 000001011100
70th IMemory :101111000001011111000100011,offset:000001011100
offset increase to 000001100000
sd instr rs2:0
71th IMemory :10011,offset:000001100000
ld instr offset: 000001100000,init_instr_offset_union:00000110000000001011000010000011000001100000 should include instr :00000110000000001011000010000011
72th IMemory :110000000001011000010000011,offset:000001100000
in sd func, rs2:11110, last element:1,rs1:1,sd:111111000001011000000100011
sd instr offset: 000001100000
sd instr rs2:11110
73th IMemory :111111000001011000000100011,offset:000001100000
offset increase to 000001100100
74th IMemory :10011,offset:000001100100
ld instr offset: 000001100100,init_instr_offset_union:00000110010000001011000010000011000001100100 should include instr :00000110010000001011000010000011
sd instr rs2:100
75th IMemory :110010000001011000010000011,offset:000001100100
in sd func, rs2:11110, last element:1,rs1:1,sd:111111000001011001000100011
sd instr offset: 000001100100
76th IMemory :111111000001011001000100011,offset:000001100100
offset increase to 000001101000
sd instr rs2:0
77th IMemory :10011,offset:000001101000
ld instr offset: 000001101000,init_instr_offset_union:00000110100000001011000010000011000001101000 should include instr :00000110100000001011000010000011
78th IMemory :110100000001011000010000011,offset:000001101000
in sd func, rs2:11110, last element:1,rs1:1,sd:111111000001011010000100011
sd instr offset: 000001101000
sd instr rs2:11110
79th IMemory :111111000001011010000100011,offset:000001101000
offset increase to 000001101100
80th IMemory :10011,offset:000001101100
ld instr offset: 000001101100,init_instr_offset_union:00000110110000001011000010000011000001101100 should include instr :00000110110000001011000010000011
sd instr rs2:1100
81th IMemory :110110000001011000010000011,offset:000001101100
in sd func, rs2:11110, last element:1,rs1:1,sd:111111000001011011000100011
sd instr offset: 000001101100
82th IMemory :111111000001011011000100011,offset:000001101100
offset increase to 000001110000
sd instr rs2:0
83th IMemory :10011,offset:000001110000
ld instr offset: 000001110000,init_instr_offset_union:00000111000000001011000010000011000001110000 should include instr :00000111000000001011000010000011
84th IMemory :111000000001011000010000011,offset:000001110000
in sd func, rs2:11110, last element:1,rs1:1,sd:111111000001011100000100011
sd instr offset: 000001110000
sd instr rs2:11110
85th IMemory :111111000001011100000100011,offset:000001110000
offset increase to 000001110100
86th IMemory :10011,offset:000001110100
ld instr offset: 000001110100,init_instr_offset_union:00000111010000001011000010000011000001110100 should include instr :00000111010000001011000010000011
sd instr rs2:10100
87th IMemory :111010000001011000010000011,offset:000001110100
in sd func, rs2:11110, last element:1,rs1:1,sd:111111000001011101000100011
sd instr offset: 000001110100
88th IMemory :111111000001011101000100011,offset:000001110100
offset increase to 000001111000
sd instr rs2:0
89th IMemory :10011,offset:000001111000
ld instr offset: 000001111000,init_instr_offset_union:00000111100000001011000010000011000001111000 should include instr :00000111100000001011000010000011
90th IMemory :111100000001011000010000011,offset:000001111000
in sd func, rs2:11110, last element:1,rs1:1,sd:111111000001011110000100011
sd instr offset: 000001111000
sd instr rs2:11110
91th IMemory :111111000001011110000100011,offset:000001111000
offset increase to 000001111100
92th IMemory :10011,offset:000001111100
ld instr offset: 000001111100,init_instr_offset_union:00000111110000001011000010000011000001111100 should include instr :00000111110000001011000010000011
sd instr rs2:11100
93th IMemory :111110000001011000010000011,offset:000001111100
in sd func, rs2:11110, last element:1,rs1:1,sd:111111000001011111000100011
sd instr offset: 000001111100
94th IMemory :111111000001011111000100011,offset:000001111100
offset increase to 000010000000
sd instr rs2:0
95th IMemory :10011,offset:000010000000
ld instr offset: 000010000000,init_instr_offset_union:00001000000000001011000010000011000010000000 should include instr :00001000000000001011000010000011
96th IMemory :1000000000001011000010000011,offset:000010000000
in sd func, rs2:11110, last element:1,rs1:1,sd:1001111000001011000000100011
sd instr offset: 000010000000
sd instr rs2:11110
97th IMemory :1001111000001011000000100011,offset:000010000000
offset increase to 000010000100
98th IMemory :10011,offset:000010000100
ld instr offset: 000010000100,init_instr_offset_union:00001000010000001011000010000011000010000100 should include instr :00001000010000001011000010000011
sd instr rs2:100
99th IMemory :1000010000001011000010000011,offset:000010000100
in sd func, rs2:11110, last element:1,rs1:1,sd:1001111000001011001000100011
sd instr offset: 000010000100
100th IMemory :1001111000001011001000100011,offset:000010000100
offset increase to 000010001000
sd instr rs2:0
101th IMemory :10011,offset:000010001000
ld instr offset: 000010001000,init_instr_offset_union:00001000100000001011000010000011000010001000 should include instr :00001000100000001011000010000011
102th IMemory :1000100000001011000010000011,offset:000010001000
in sd func, rs2:11110, last element:1,rs1:1,sd:1001111000001011010000100011
sd instr offset: 000010001000
sd instr rs2:11110
103th IMemory :1001111000001011010000100011,offset:000010001000
offset increase to 000010001100
104th IMemory :10011,offset:000010001100
ld instr offset: 000010001100,init_instr_offset_union:00001000110000001011000010000011000010001100 should include instr :00001000110000001011000010000011
sd instr rs2:1100
105th IMemory :1000110000001011000010000011,offset:000010001100
in sd func, rs2:11110, last element:1,rs1:1,sd:1001111000001011011000100011
sd instr offset: 000010001100
106th IMemory :1001111000001011011000100011,offset:000010001100
offset increase to 000010010000
sd instr rs2:0
107th IMemory :10011,offset:000010010000
ld instr offset: 000010010000,init_instr_offset_union:00001001000000001011000010000011000010010000 should include instr :00001001000000001011000010000011
108th IMemory :1001000000001011000010000011,offset:000010010000
in sd func, rs2:11110, last element:1,rs1:1,sd:1001111000001011100000100011
sd instr offset: 000010010000
sd instr rs2:11110
109th IMemory :1001111000001011100000100011,offset:000010010000
offset increase to 000010010100
110th IMemory :10011,offset:000010010100
ld instr offset: 000010010100,init_instr_offset_union:00001001010000001011000010000011000010010100 should include instr :00001001010000001011000010000011
sd instr rs2:10100
111th IMemory :1001010000001011000010000011,offset:000010010100
in sd func, rs2:11110, last element:1,rs1:1,sd:1001111000001011101000100011
sd instr offset: 000010010100
112th IMemory :1001111000001011101000100011,offset:000010010100
offset increase to 000010011000
sd instr rs2:0
113th IMemory :10011,offset:000010011000
ld instr offset: 000010011000,init_instr_offset_union:00001001100000001011000010000011000010011000 should include instr :00001001100000001011000010000011
114th IMemory :1001100000001011000010000011,offset:000010011000
in sd func, rs2:11110, last element:1,rs1:1,sd:1001111000001011110000100011
sd instr offset: 000010011000
sd instr rs2:11110
115th IMemory :1001111000001011110000100011,offset:000010011000
offset increase to 000010011100
116th IMemory :10011,offset:000010011100
ld instr offset: 000010011100,init_instr_offset_union:00001001110000001011000010000011000010011100 should include instr :00001001110000001011000010000011
sd instr rs2:11100
117th IMemory :1001110000001011000010000011,offset:000010011100
in sd func, rs2:11110, last element:1,rs1:1,sd:1001111000001011111000100011
sd instr offset: 000010011100
118th IMemory :1001111000001011111000100011,offset:000010011100
offset increase to 000010100000
sd instr rs2:0
119th IMemory :10011,offset:000010100000
ld instr offset: 000010100000,init_instr_offset_union:00001010000000001011000010000011000010100000 should include instr :00001010000000001011000010000011
120th IMemory :1010000000001011000010000011,offset:000010100000
in sd func, rs2:11110, last element:1,rs1:1,sd:1011111000001011000000100011
sd instr offset: 000010100000
sd instr rs2:11110
121th IMemory :1011111000001011000000100011,offset:000010100000
offset increase to 000010100100
122th IMemory :10011,offset:000010100100
ld instr offset: 000010100100,init_instr_offset_union:00001010010000001011000010000011000010100100 should include instr :00001010010000001011000010000011
sd instr rs2:100
123th IMemory :1010010000001011000010000011,offset:000010100100
in sd func, rs2:11110, last element:1,rs1:1,sd:1011111000001011001000100011
sd instr offset: 000010100100
124th IMemory :1011111000001011001000100011,offset:000010100100
offset increase to 000010101000
sd instr rs2:0
125th IMemory :10011,offset:000010101000
ld instr offset: 000010101000,init_instr_offset_union:00001010100000001011000010000011000010101000 should include instr :00001010100000001011000010000011
126th IMemory :1010100000001011000010000011,offset:000010101000
in sd func, rs2:11110, last element:1,rs1:1,sd:1011111000001011010000100011
sd instr offset: 000010101000
sd instr rs2:11110
127th IMemory :1011111000001011010000100011,offset:000010101000
offset increase to 000010101100
128th IMemory :10011,offset:000010101100
ld instr offset: 000010101100,init_instr_offset_union:00001010110000001011000010000011000010101100 should include instr :00001010110000001011000010000011
sd instr rs2:1100
129th IMemory :1010110000001011000010000011,offset:000010101100
in sd func, rs2:11110, last element:1,rs1:1,sd:1011111000001011011000100011
sd instr offset: 000010101100
130th IMemory :1011111000001011011000100011,offset:000010101100
offset increase to 000010110000
sd instr rs2:0
131th IMemory :10011,offset:000010110000
ld instr offset: 000010110000,init_instr_offset_union:00001011000000001011000010000011000010110000 should include instr :00001011000000001011000010000011
132th IMemory :1011000000001011000010000011,offset:000010110000
in sd func, rs2:11110, last element:1,rs1:1,sd:1011111000001011100000100011
sd instr offset: 000010110000
sd instr rs2:11110
133th IMemory :1011111000001011100000100011,offset:000010110000
offset increase to 000010110100
134th IMemory :10011,offset:000010110100
ld instr offset: 000010110100,init_instr_offset_union:00001011010000001011000010000011000010110100 should include instr :00001011010000001011000010000011
sd instr rs2:10100
135th IMemory :1011010000001011000010000011,offset:000010110100
in sd func, rs2:11110, last element:1,rs1:1,sd:1011111000001011101000100011
sd instr offset: 000010110100
136th IMemory :1011111000001011101000100011,offset:000010110100
offset increase to 000010111000
sd instr rs2:0
137th IMemory :10011,offset:000010111000
ld instr offset: 000010111000,init_instr_offset_union:00001011100000001011000010000011000010111000 should include instr :00001011100000001011000010000011
138th IMemory :1011100000001011000010000011,offset:000010111000
in sd func, rs2:11110, last element:1,rs1:1,sd:1011111000001011110000100011
sd instr offset: 000010111000
sd instr rs2:11110
139th IMemory :1011111000001011110000100011,offset:000010111000
offset increase to 000010111100
140th IMemory :10011,offset:000010111100
ld instr offset: 000010111100,init_instr_offset_union:00001011110000001011000010000011000010111100 should include instr :00001011110000001011000010000011
sd instr rs2:11100
141th IMemory :1011110000001011000010000011,offset:000010111100
in sd func, rs2:11110, last element:1,rs1:1,sd:1011111000001011111000100011
sd instr offset: 000010111100
142th IMemory :1011111000001011111000100011,offset:000010111100
offset increase to 000011000000
sd instr rs2:0
143th IMemory :10011,offset:000011000000
ld instr offset: 000011000000,init_instr_offset_union:00001100000000001011000010000011000011000000 should include instr :00001100000000001011000010000011
144th IMemory :1100000000001011000010000011,offset:000011000000
in sd func, rs2:11110, last element:1,rs1:1,sd:1101111000001011000000100011
sd instr offset: 000011000000
sd instr rs2:11110
145th IMemory :1101111000001011000000100011,offset:000011000000
offset increase to 000011000100
146th IMemory :10011,offset:000011000100
ld instr offset: 000011000100,init_instr_offset_union:00001100010000001011000010000011000011000100 should include instr :00001100010000001011000010000011
sd instr rs2:100
147th IMemory :1100010000001011000010000011,offset:000011000100
in sd func, rs2:11110, last element:1,rs1:1,sd:1101111000001011001000100011
sd instr offset: 000011000100
148th IMemory :1101111000001011001000100011,offset:000011000100
offset increase to 000011001000
sd instr rs2:0
149th IMemory :10011,offset:000011001000
ld instr offset: 000011001000,init_instr_offset_union:00001100100000001011000010000011000011001000 should include instr :00001100100000001011000010000011
150th IMemory :1100100000001011000010000011,offset:000011001000
in sd func, rs2:11110, last element:1,rs1:1,sd:1101111000001011010000100011
sd instr offset: 000011001000
sd instr rs2:11110
151th IMemory :1101111000001011010000100011,offset:000011001000
offset increase to 000011001100
152th IMemory :10011,offset:000011001100
ld instr offset: 000011001100,init_instr_offset_union:00001100110000001011000010000011000011001100 should include instr :00001100110000001011000010000011
sd instr rs2:1100
153th IMemory :1100110000001011000010000011,offset:000011001100
in sd func, rs2:11110, last element:1,rs1:1,sd:1101111000001011011000100011
sd instr offset: 000011001100
154th IMemory :1101111000001011011000100011,offset:000011001100
offset increase to 000011010000
sd instr rs2:0
155th IMemory :10011,offset:000011010000
ld instr offset: 000011010000,init_instr_offset_union:00001101000000001011000010000011000011010000 should include instr :00001101000000001011000010000011
156th IMemory :1101000000001011000010000011,offset:000011010000
in sd func, rs2:11110, last element:1,rs1:1,sd:1101111000001011100000100011
sd instr offset: 000011010000
sd instr rs2:11110
157th IMemory :1101111000001011100000100011,offset:000011010000
offset increase to 000011010100
158th IMemory :10011,offset:000011010100
ld instr offset: 000011010100,init_instr_offset_union:00001101010000001011000010000011000011010100 should include instr :00001101010000001011000010000011
sd instr rs2:10100
159th IMemory :1101010000001011000010000011,offset:000011010100
in sd func, rs2:11110, last element:1,rs1:1,sd:1101111000001011101000100011
sd instr offset: 000011010100
160th IMemory :1101111000001011101000100011,offset:000011010100
offset increase to 000011011000
sd instr rs2:0
161th IMemory :10011,offset:000011011000
ld instr offset: 000011011000,init_instr_offset_union:00001101100000001011000010000011000011011000 should include instr :00001101100000001011000010000011
162th IMemory :1101100000001011000010000011,offset:000011011000
in sd func, rs2:11110, last element:1,rs1:1,sd:1101111000001011110000100011
sd instr offset: 000011011000
sd instr rs2:11110
163th IMemory :1101111000001011110000100011,offset:000011011000
offset increase to 000011011100
164th IMemory :10011,offset:000011011100
ld instr offset: 000011011100,init_instr_offset_union:00001101110000001011000010000011000011011100 should include instr :00001101110000001011000010000011
sd instr rs2:11100
165th IMemory :1101110000001011000010000011,offset:000011011100
in sd func, rs2:11110, last element:1,rs1:1,sd:1101111000001011111000100011
sd instr offset: 000011011100
166th IMemory :1101111000001011111000100011,offset:000011011100
offset increase to 000011100000
sd instr rs2:0
167th IMemory :10011,offset:000011100000
ld instr offset: 000011100000,init_instr_offset_union:00001110000000001011000010000011000011100000 should include instr :00001110000000001011000010000011
168th IMemory :1110000000001011000010000011,offset:000011100000
in sd func, rs2:11110, last element:1,rs1:1,sd:1111111000001011000000100011
sd instr offset: 000011100000
sd instr rs2:11110
169th IMemory :1111111000001011000000100011,offset:000011100000
offset increase to 000011100100
170th IMemory :10011,offset:000011100100
ld instr offset: 000011100100,init_instr_offset_union:00001110010000001011000010000011000011100100 should include instr :00001110010000001011000010000011
sd instr rs2:100
171th IMemory :1110010000001011000010000011,offset:000011100100
in sd func, rs2:11110, last element:1,rs1:1,sd:1111111000001011001000100011
sd instr offset: 000011100100
172th IMemory :1111111000001011001000100011,offset:000011100100
offset increase to 000011101000
sd instr rs2:0
173th IMemory :10011,offset:000011101000
ld instr offset: 000011101000,init_instr_offset_union:00001110100000001011000010000011000011101000 should include instr :00001110100000001011000010000011
174th IMemory :1110100000001011000010000011,offset:000011101000
in sd func, rs2:11110, last element:1,rs1:1,sd:1111111000001011010000100011
sd instr offset: 000011101000
sd instr rs2:11110
175th IMemory :1111111000001011010000100011,offset:000011101000
offset increase to 000011101100
176th IMemory :10011,offset:000011101100
ld instr offset: 000011101100,init_instr_offset_union:00001110110000001011000010000011000011101100 should include instr :00001110110000001011000010000011
sd instr rs2:1100
177th IMemory :1110110000001011000010000011,offset:000011101100
in sd func, rs2:11110, last element:1,rs1:1,sd:1111111000001011011000100011
sd instr offset: 000011101100
178th IMemory :1111111000001011011000100011,offset:000011101100
offset increase to 000011110000
sd instr rs2:0
179th IMemory :10011,offset:000011110000
ld instr offset: 000011110000,init_instr_offset_union:00001111000000001011000010000011000011110000 should include instr :00001111000000001011000010000011
180th IMemory :1111000000001011000010000011,offset:000011110000
in sd func, rs2:11110, last element:1,rs1:1,sd:1111111000001011100000100011
sd instr offset: 000011110000
sd instr rs2:11110
181th IMemory :1111111000001011100000100011,offset:000011110000
offset increase to 000011110100
182th IMemory :10011,offset:000011110100
ld instr offset: 000011110100,init_instr_offset_union:00001111010000001011000010000011000011110100 should include instr :00001111010000001011000010000011
sd instr rs2:10100
183th IMemory :1111010000001011000010000011,offset:000011110100
in sd func, rs2:11110, last element:1,rs1:1,sd:1111111000001011101000100011
sd instr offset: 000011110100
184th IMemory :1111111000001011101000100011,offset:000011110100
offset increase to 000011111000
sd instr rs2:0
185th IMemory :10011,offset:000011111000
ld instr offset: 000011111000,init_instr_offset_union:00001111100000001011000010000011000011111000 should include instr :00001111100000001011000010000011
186th IMemory :1111100000001011000010000011,offset:000011111000
in sd func, rs2:11110, last element:1,rs1:1,sd:1111111000001011110000100011
sd instr offset: 000011111000
sd instr rs2:11110
187th IMemory :1111111000001011110000100011,offset:000011111000
offset increase to 000011111100
188th IMemory :10011,offset:000011111100
ld instr offset: 000011111100,init_instr_offset_union:00001111110000001011000010000011000011111100 should include instr :00001111110000001011000010000011
sd instr rs2:11100
189th IMemory :1111110000001011000010000011,offset:000011111100
in sd func, rs2:11110, last element:1,rs1:1,sd:1111111000001011111000100011
sd instr offset: 000011111100
190th IMemory :1111111000001011111000100011,offset:000011111100
offset increase to 000100000000
sd instr rs2:0
191th IMemory :10011,offset:000100000000
ld instr offset: 000100000000,init_instr_offset_union:00010000000000001011000010000011000100000000 should include instr :00010000000000001011000010000011
192th IMemory :10000000000001011000010000011,offset:000100000000
in sd func, rs2:11110, last element:1,rs1:1,sd:10001111000001011000000100011
sd instr offset: 000100000000
sd instr rs2:11110
193th IMemory :10001111000001011000000100011,offset:000100000000
offset increase to 000100000100
194th IMemory :10011,offset:000100000100
ld instr offset: 000100000100,init_instr_offset_union:00010000010000001011000010000011000100000100 should include instr :00010000010000001011000010000011
sd instr rs2:100
195th IMemory :10000010000001011000010000011,offset:000100000100
in sd func, rs2:11110, last element:1,rs1:1,sd:10001111000001011001000100011
sd instr offset: 000100000100
196th IMemory :10001111000001011001000100011,offset:000100000100
offset increase to 000100001000
sd instr rs2:0
197th IMemory :10011,offset:000100001000
ld instr offset: 000100001000,init_instr_offset_union:00010000100000001011000010000011000100001000 should include instr :00010000100000001011000010000011
198th IMemory :10000100000001011000010000011,offset:000100001000
in sd func, rs2:11110, last element:1,rs1:1,sd:10001111000001011010000100011
sd instr offset: 000100001000
sd instr rs2:11110
199th IMemory :10001111000001011010000100011,offset:000100001000
offset increase to 000100001100
200th IMemory :10011,offset:000100001100
ld instr offset: 000100001100,init_instr_offset_union:00010000110000001011000010000011000100001100 should include instr :00010000110000001011000010000011
sd instr rs2:1100
201th IMemory :10000110000001011000010000011,offset:000100001100
in sd func, rs2:11110, last element:1,rs1:1,sd:10001111000001011011000100011
sd instr offset: 000100001100
202th IMemory :10001111000001011011000100011,offset:000100001100
offset increase to 000100010000
sd instr rs2:0
203th IMemory :10011,offset:000100010000
ld instr offset: 000100010000,init_instr_offset_union:00010001000000001011000010000011000100010000 should include instr :00010001000000001011000010000011
204th IMemory :10001000000001011000010000011,offset:000100010000
in sd func, rs2:11110, last element:1,rs1:1,sd:10001111000001011100000100011
sd instr offset: 000100010000
sd instr rs2:11110
205th IMemory :10001111000001011100000100011,offset:000100010000
offset increase to 000100010100
206th IMemory :10011,offset:000100010100
ld instr offset: 000100010100,init_instr_offset_union:00010001010000001011000010000011000100010100 should include instr :00010001010000001011000010000011
sd instr rs2:10100
207th IMemory :10001010000001011000010000011,offset:000100010100
in sd func, rs2:11110, last element:1,rs1:1,sd:10001111000001011101000100011
sd instr offset: 000100010100
208th IMemory :10001111000001011101000100011,offset:000100010100
offset increase to 000100011000
sd instr rs2:0
209th IMemory :10011,offset:000100011000
ld instr offset: 000100011000,init_instr_offset_union:00010001100000001011000010000011000100011000 should include instr :00010001100000001011000010000011
210th IMemory :10001100000001011000010000011,offset:000100011000
in sd func, rs2:11110, last element:1,rs1:1,sd:10001111000001011110000100011
sd instr offset: 000100011000
sd instr rs2:11110
211th IMemory :10001111000001011110000100011,offset:000100011000
offset increase to 000100011100
212th IMemory :10011,offset:000100011100
ld instr offset: 000100011100,init_instr_offset_union:00010001110000001011000010000011000100011100 should include instr :00010001110000001011000010000011
sd instr rs2:11100
213th IMemory :10001110000001011000010000011,offset:000100011100
in sd func, rs2:11110, last element:1,rs1:1,sd:10001111000001011111000100011
sd instr offset: 000100011100
214th IMemory :10001111000001011111000100011,offset:000100011100
offset increase to 000100100000
sd instr rs2:0
215th IMemory :10011,offset:000100100000
ld instr offset: 000100100000,init_instr_offset_union:00010010000000001011000010000011000100100000 should include instr :00010010000000001011000010000011
216th IMemory :10010000000001011000010000011,offset:000100100000
in sd func, rs2:11110, last element:1,rs1:1,sd:10011111000001011000000100011
sd instr offset: 000100100000
sd instr rs2:11110
217th IMemory :10011111000001011000000100011,offset:000100100000
offset increase to 000100100100
218th IMemory :10011,offset:000100100100
ld instr offset: 000100100100,init_instr_offset_union:00010010010000001011000010000011000100100100 should include instr :00010010010000001011000010000011
sd instr rs2:100
219th IMemory :10010010000001011000010000011,offset:000100100100
in sd func, rs2:11110, last element:1,rs1:1,sd:10011111000001011001000100011
sd instr offset: 000100100100
220th IMemory :10011111000001011001000100011,offset:000100100100
offset increase to 000100101000
sd instr rs2:0
221th IMemory :10011,offset:000100101000
